(kicad_sch (version 20210126) (generator eeschema)

  (paper "A4")

  (title_block
    (title "ESP866 Qwiic")
  )

  (lib_symbols
    (symbol "Connector:Conn_01x05_Female" (pin_names (offset 1.016) hide) (in_bom yes) (on_board yes)
      (property "Reference" "J" (id 0) (at 0 7.62 0)
        (effects (font (size 1.27 1.27)))
      )
      (property "Value" "Conn_01x05_Female" (id 1) (at 0 -7.62 0)
        (effects (font (size 1.27 1.27)))
      )
      (property "Footprint" "" (id 2) (at 0 0 0)
        (effects (font (size 1.27 1.27)) hide)
      )
      (property "Datasheet" "~" (id 3) (at 0 0 0)
        (effects (font (size 1.27 1.27)) hide)
      )
      (property "ki_keywords" "connector" (id 4) (at 0 0 0)
        (effects (font (size 1.27 1.27)) hide)
      )
      (property "ki_description" "Generic connector, single row, 01x05, script generated (kicad-library-utils/schlib/autogen/connector/)" (id 5) (at 0 0 0)
        (effects (font (size 1.27 1.27)) hide)
      )
      (property "ki_fp_filters" "Connector*:*_1x??_*" (id 6) (at 0 0 0)
        (effects (font (size 1.27 1.27)) hide)
      )
      (symbol "Conn_01x05_Female_1_1"
        (arc (start 0 -4.572) (end 0 -5.588) (radius (at 0 -5.08) (length 0.508) (angles 90.1 -90.1))
          (stroke (width 0.1524)) (fill (type none))
        )
        (arc (start 0 -2.032) (end 0 -3.048) (radius (at 0 -2.54) (length 0.508) (angles 90.1 -90.1))
          (stroke (width 0.1524)) (fill (type none))
        )
        (arc (start 0 0.508) (end 0 -0.508) (radius (at 0 0) (length 0.508) (angles 90.1 -90.1))
          (stroke (width 0.1524)) (fill (type none))
        )
        (arc (start 0 3.048) (end 0 2.032) (radius (at 0 2.54) (length 0.508) (angles 90.1 -90.1))
          (stroke (width 0.1524)) (fill (type none))
        )
        (arc (start 0 5.588) (end 0 4.572) (radius (at 0 5.08) (length 0.508) (angles 90.1 -90.1))
          (stroke (width 0.1524)) (fill (type none))
        )
        (polyline
          (pts
            (xy -1.27 -5.08)
            (xy -0.508 -5.08)
          )
          (stroke (width 0.1524)) (fill (type none))
        )
        (polyline
          (pts
            (xy -1.27 -2.54)
            (xy -0.508 -2.54)
          )
          (stroke (width 0.1524)) (fill (type none))
        )
        (polyline
          (pts
            (xy -1.27 0)
            (xy -0.508 0)
          )
          (stroke (width 0.1524)) (fill (type none))
        )
        (polyline
          (pts
            (xy -1.27 2.54)
            (xy -0.508 2.54)
          )
          (stroke (width 0.1524)) (fill (type none))
        )
        (polyline
          (pts
            (xy -1.27 5.08)
            (xy -0.508 5.08)
          )
          (stroke (width 0.1524)) (fill (type none))
        )
        (pin passive line (at -5.08 5.08 0) (length 3.81)
          (name "Pin_1" (effects (font (size 1.27 1.27))))
          (number "1" (effects (font (size 1.27 1.27))))
        )
        (pin passive line (at -5.08 2.54 0) (length 3.81)
          (name "Pin_2" (effects (font (size 1.27 1.27))))
          (number "2" (effects (font (size 1.27 1.27))))
        )
        (pin passive line (at -5.08 0 0) (length 3.81)
          (name "Pin_3" (effects (font (size 1.27 1.27))))
          (number "3" (effects (font (size 1.27 1.27))))
        )
        (pin passive line (at -5.08 -2.54 0) (length 3.81)
          (name "Pin_4" (effects (font (size 1.27 1.27))))
          (number "4" (effects (font (size 1.27 1.27))))
        )
        (pin passive line (at -5.08 -5.08 0) (length 3.81)
          (name "Pin_5" (effects (font (size 1.27 1.27))))
          (number "5" (effects (font (size 1.27 1.27))))
        )
      )
    )
    (symbol "Connector_Generic:Conn_01x06" (pin_names (offset 1.016) hide) (in_bom yes) (on_board yes)
      (property "Reference" "J" (id 0) (at 0 7.62 0)
        (effects (font (size 1.27 1.27)))
      )
      (property "Value" "Conn_01x06" (id 1) (at 0 -10.16 0)
        (effects (font (size 1.27 1.27)))
      )
      (property "Footprint" "" (id 2) (at 0 0 0)
        (effects (font (size 1.27 1.27)) hide)
      )
      (property "Datasheet" "~" (id 3) (at 0 0 0)
        (effects (font (size 1.27 1.27)) hide)
      )
      (property "ki_keywords" "connector" (id 4) (at 0 0 0)
        (effects (font (size 1.27 1.27)) hide)
      )
      (property "ki_description" "Generic connector, single row, 01x06, script generated (kicad-library-utils/schlib/autogen/connector/)" (id 5) (at 0 0 0)
        (effects (font (size 1.27 1.27)) hide)
      )
      (property "ki_fp_filters" "Connector*:*_1x??_*" (id 6) (at 0 0 0)
        (effects (font (size 1.27 1.27)) hide)
      )
      (symbol "Conn_01x06_1_1"
        (rectangle (start -1.27 -7.493) (end 0 -7.747)
          (stroke (width 0.1524)) (fill (type none))
        )
        (rectangle (start -1.27 -4.953) (end 0 -5.207)
          (stroke (width 0.1524)) (fill (type none))
        )
        (rectangle (start -1.27 -2.413) (end 0 -2.667)
          (stroke (width 0.1524)) (fill (type none))
        )
        (rectangle (start -1.27 0.127) (end 0 -0.127)
          (stroke (width 0.1524)) (fill (type none))
        )
        (rectangle (start -1.27 2.667) (end 0 2.413)
          (stroke (width 0.1524)) (fill (type none))
        )
        (rectangle (start -1.27 5.207) (end 0 4.953)
          (stroke (width 0.1524)) (fill (type none))
        )
        (rectangle (start -1.27 6.35) (end 1.27 -8.89)
          (stroke (width 0.254)) (fill (type background))
        )
        (pin passive line (at -5.08 5.08 0) (length 3.81)
          (name "Pin_1" (effects (font (size 1.27 1.27))))
          (number "1" (effects (font (size 1.27 1.27))))
        )
        (pin passive line (at -5.08 2.54 0) (length 3.81)
          (name "Pin_2" (effects (font (size 1.27 1.27))))
          (number "2" (effects (font (size 1.27 1.27))))
        )
        (pin passive line (at -5.08 0 0) (length 3.81)
          (name "Pin_3" (effects (font (size 1.27 1.27))))
          (number "3" (effects (font (size 1.27 1.27))))
        )
        (pin passive line (at -5.08 -2.54 0) (length 3.81)
          (name "Pin_4" (effects (font (size 1.27 1.27))))
          (number "4" (effects (font (size 1.27 1.27))))
        )
        (pin passive line (at -5.08 -5.08 0) (length 3.81)
          (name "Pin_5" (effects (font (size 1.27 1.27))))
          (number "5" (effects (font (size 1.27 1.27))))
        )
        (pin passive line (at -5.08 -7.62 0) (length 3.81)
          (name "Pin_6" (effects (font (size 1.27 1.27))))
          (number "6" (effects (font (size 1.27 1.27))))
        )
      )
    )
    (symbol "Device:R_Small" (pin_numbers hide) (pin_names (offset 0.254) hide) (in_bom yes) (on_board yes)
      (property "Reference" "R" (id 0) (at 0.762 0.508 0)
        (effects (font (size 1.27 1.27)) (justify left))
      )
      (property "Value" "R_Small" (id 1) (at 0.762 -1.016 0)
        (effects (font (size 1.27 1.27)) (justify left))
      )
      (property "Footprint" "" (id 2) (at 0 0 0)
        (effects (font (size 1.27 1.27)) hide)
      )
      (property "Datasheet" "~" (id 3) (at 0 0 0)
        (effects (font (size 1.27 1.27)) hide)
      )
      (property "ki_keywords" "R resistor" (id 4) (at 0 0 0)
        (effects (font (size 1.27 1.27)) hide)
      )
      (property "ki_description" "Resistor, small symbol" (id 5) (at 0 0 0)
        (effects (font (size 1.27 1.27)) hide)
      )
      (property "ki_fp_filters" "R_*" (id 6) (at 0 0 0)
        (effects (font (size 1.27 1.27)) hide)
      )
      (symbol "R_Small_0_1"
        (rectangle (start -0.762 1.778) (end 0.762 -1.778)
          (stroke (width 0.2032)) (fill (type none))
        )
      )
      (symbol "R_Small_1_1"
        (pin passive line (at 0 2.54 270) (length 0.762)
          (name "~" (effects (font (size 1.27 1.27))))
          (number "1" (effects (font (size 1.27 1.27))))
        )
        (pin passive line (at 0 -2.54 90) (length 0.762)
          (name "~" (effects (font (size 1.27 1.27))))
          (number "2" (effects (font (size 1.27 1.27))))
        )
      )
    )
    (symbol "Jumper:SolderJumper_2_Open" (pin_names (offset 0) hide) (in_bom yes) (on_board yes)
      (property "Reference" "JP" (id 0) (at 0 2.032 0)
        (effects (font (size 1.27 1.27)))
      )
      (property "Value" "SolderJumper_2_Open" (id 1) (at 0 -2.54 0)
        (effects (font (size 1.27 1.27)))
      )
      (property "Footprint" "" (id 2) (at 0 0 0)
        (effects (font (size 1.27 1.27)) hide)
      )
      (property "Datasheet" "~" (id 3) (at 0 0 0)
        (effects (font (size 1.27 1.27)) hide)
      )
      (property "ki_keywords" "solder jumper SPST" (id 4) (at 0 0 0)
        (effects (font (size 1.27 1.27)) hide)
      )
      (property "ki_description" "Solder Jumper, 2-pole, open" (id 5) (at 0 0 0)
        (effects (font (size 1.27 1.27)) hide)
      )
      (property "ki_fp_filters" "SolderJumper*Open*" (id 6) (at 0 0 0)
        (effects (font (size 1.27 1.27)) hide)
      )
      (symbol "SolderJumper_2_Open_0_1"
        (arc (start -0.254 1.016) (end -0.254 -1.016) (radius (at -0.254 0) (length 1.016) (angles 90.1 -90.1))
          (stroke (width 0)) (fill (type none))
        )
        (arc (start 0.254 -1.016) (end 0.254 1.016) (radius (at 0.254 0) (length 1.016) (angles -89.9 89.9))
          (stroke (width 0)) (fill (type none))
        )
        (arc (start -0.254 1.016) (end -0.254 -1.016) (radius (at -0.254 0) (length 1.016) (angles 90.1 -90.1))
          (stroke (width 0)) (fill (type outline))
        )
        (arc (start 0.254 -1.016) (end 0.254 1.016) (radius (at 0.254 0) (length 1.016) (angles -89.9 89.9))
          (stroke (width 0)) (fill (type outline))
        )
        (polyline
          (pts
            (xy -0.254 1.016)
            (xy -0.254 -1.016)
          )
          (stroke (width 0)) (fill (type none))
        )
        (polyline
          (pts
            (xy 0.254 1.016)
            (xy 0.254 -1.016)
          )
          (stroke (width 0)) (fill (type none))
        )
      )
      (symbol "SolderJumper_2_Open_1_1"
        (pin passive line (at -3.81 0 0) (length 2.54)
          (name "A" (effects (font (size 1.27 1.27))))
          (number "1" (effects (font (size 1.27 1.27))))
        )
        (pin passive line (at 3.81 0 180) (length 2.54)
          (name "B" (effects (font (size 1.27 1.27))))
          (number "2" (effects (font (size 1.27 1.27))))
        )
      )
    )
    (symbol "RF_Module:ESP-WROOM-02" (in_bom yes) (on_board yes)
      (property "Reference" "U" (id 0) (at -7.62 13.97 0)
        (effects (font (size 1.27 1.27)))
      )
      (property "Value" "ESP-WROOM-02" (id 1) (at 10.16 13.97 0)
        (effects (font (size 1.27 1.27)))
      )
      (property "Footprint" "RF_Module:ESP-WROOM-02" (id 2) (at 15.24 -13.97 0)
        (effects (font (size 1.27 1.27)) hide)
      )
      (property "Datasheet" "https://www.espressif.com/sites/default/files/documentation/0c-esp-wroom-02_datasheet_en.pdf" (id 3) (at 1.27 38.1 0)
        (effects (font (size 1.27 1.27)) hide)
      )
      (property "ki_keywords" "RF Radio ESP Espressif" (id 4) (at 0 0 0)
        (effects (font (size 1.27 1.27)) hide)
      )
      (property "ki_description" "Wi-Fi Module, ESP8266EX SoC, 32-bit, 802.11b/g/n, WPA/WPA2, 2.7-3.6V, SMD" (id 5) (at 0 0 0)
        (effects (font (size 1.27 1.27)) hide)
      )
      (property "ki_fp_filters" "ESP?WROOM?02*" (id 6) (at 0 0 0)
        (effects (font (size 1.27 1.27)) hide)
      )
      (symbol "ESP-WROOM-02_0_1"
        (rectangle (start 10.16 12.7) (end -10.16 -12.7)
          (stroke (width 0.254)) (fill (type background))
        )
      )
      (symbol "ESP-WROOM-02_1_1"
        (pin power_in line (at 0 15.24 270) (length 2.54)
          (name "VDD" (effects (font (size 1.27 1.27))))
          (number "1" (effects (font (size 1.27 1.27))))
        )
        (pin bidirectional line (at 12.7 5.08 180) (length 2.54)
          (name "IO4" (effects (font (size 1.27 1.27))))
          (number "10" (effects (font (size 1.27 1.27))))
        )
        (pin bidirectional line (at -12.7 -2.54 0) (length 2.54)
          (name "RXD" (effects (font (size 1.27 1.27))))
          (number "11" (effects (font (size 1.27 1.27))))
        )
        (pin bidirectional line (at -12.7 -5.08 0) (length 2.54)
          (name "TXD" (effects (font (size 1.27 1.27))))
          (number "12" (effects (font (size 1.27 1.27))))
        )
        (pin passive line (at 0 -15.24 90) (length 2.54) hide
          (name "GND" (effects (font (size 1.27 1.27))))
          (number "13" (effects (font (size 1.27 1.27))))
        )
        (pin bidirectional line (at 12.7 2.54 180) (length 2.54)
          (name "IO5" (effects (font (size 1.27 1.27))))
          (number "14" (effects (font (size 1.27 1.27))))
        )
        (pin input line (at -12.7 7.62 0) (length 2.54)
          (name "RST" (effects (font (size 1.27 1.27))))
          (number "15" (effects (font (size 1.27 1.27))))
        )
        (pin input line (at -12.7 2.54 0) (length 2.54)
          (name "TOUT" (effects (font (size 1.27 1.27))))
          (number "16" (effects (font (size 1.27 1.27))))
        )
        (pin bidirectional line (at 12.7 -10.16 180) (length 2.54)
          (name "IO16" (effects (font (size 1.27 1.27))))
          (number "17" (effects (font (size 1.27 1.27))))
        )
        (pin passive line (at 0 -15.24 90) (length 2.54) hide
          (name "GND" (effects (font (size 1.27 1.27))))
          (number "18" (effects (font (size 1.27 1.27))))
        )
        (pin passive line (at 0 -15.24 90) (length 2.54) hide
          (name "GND" (effects (font (size 1.27 1.27))))
          (number "19" (effects (font (size 1.27 1.27))))
        )
        (pin input line (at -12.7 10.16 0) (length 2.54)
          (name "EN" (effects (font (size 1.27 1.27))))
          (number "2" (effects (font (size 1.27 1.27))))
        )
        (pin bidirectional line (at 12.7 -5.08 180) (length 2.54)
          (name "IO14" (effects (font (size 1.27 1.27))))
          (number "3" (effects (font (size 1.27 1.27))))
        )
        (pin bidirectional line (at 12.7 0 180) (length 2.54)
          (name "IO12" (effects (font (size 1.27 1.27))))
          (number "4" (effects (font (size 1.27 1.27))))
        )
        (pin bidirectional line (at 12.7 -2.54 180) (length 2.54)
          (name "IO13" (effects (font (size 1.27 1.27))))
          (number "5" (effects (font (size 1.27 1.27))))
        )
        (pin bidirectional line (at 12.7 -7.62 180) (length 2.54)
          (name "IO15" (effects (font (size 1.27 1.27))))
          (number "6" (effects (font (size 1.27 1.27))))
        )
        (pin bidirectional line (at 12.7 7.62 180) (length 2.54)
          (name "IO2" (effects (font (size 1.27 1.27))))
          (number "7" (effects (font (size 1.27 1.27))))
        )
        (pin bidirectional line (at 12.7 10.16 180) (length 2.54)
          (name "IO0" (effects (font (size 1.27 1.27))))
          (number "8" (effects (font (size 1.27 1.27))))
        )
        (pin power_in line (at 0 -15.24 90) (length 2.54)
          (name "GND" (effects (font (size 1.27 1.27))))
          (number "9" (effects (font (size 1.27 1.27))))
        )
      )
    )
    (symbol "SparkFun-Connectors:QWIIC_CONNECTORJS-1MM" (pin_numbers hide) (pin_names (offset 1.016)) (in_bom yes) (on_board yes)
      (property "Reference" "J" (id 0) (at -5.08 10.16 0)
        (effects (font (size 1.143 1.143)) (justify left bottom))
      )
      (property "Value" "QWIIC_CONNECTORJS-1MM" (id 1) (at -5.08 -3.81 0)
        (effects (font (size 1.143 1.143)) (justify left bottom))
      )
      (property "Footprint" "1X04_1MM_RA" (id 2) (at 0 12.7 0)
        (effects (font (size 0.508 0.508)) hide)
      )
      (property "Datasheet" "" (id 3) (at 0 0 0)
        (effects (font (size 1.27 1.27)) hide)
      )
      (property "Field4" "CONN-13694" (id 4) (at 0 13.97 0)
        (effects (font (size 1.524 1.524)))
      )
      (property "ki_locked" "" (id 5) (at 0 0 0)
        (effects (font (size 1.27 1.27)))
      )
      (property "ki_keywords" "PROD_ID:XXX-00000" (id 6) (at 0 0 0)
        (effects (font (size 1.27 1.27)) hide)
      )
      (property "ki_description" "SparkFun I<sup>2</sup>C Standard Qwiic Connector An SMD 1mm pitch JST connector makes it easy and quick (get it? Qwiic?) to connect I<sup>2</sup>C devices to each other. The <a href= http://www.sparkfun.com/qwiic >Qwiic system</a> enables fast and solderless connection between popular platforms and various sensors and actuators.<br><br>We carry <a href= https://www.sparkfun.com/products/14204 >200mm</a>, <a href= https://www.sparkfun.com/products/14205 >100mm</a>, <a href= https://www.sparkfun.com/products/14206 >50mm</a>, and <a href= https://www.sparkfun.com/products/14207 >breadboard friendly</a> Qwiic cables. We also offer <a href= https://www.sparkfun.com/products/14323 >10 pcs strips</a> the SMD connectors." (id 7) (at 0 0 0)
        (effects (font (size 1.27 1.27)) hide)
      )
      (property "ki_fp_filters" "*1X04_1MM_RA* *1X04_1MM_RA_STRESSRELIEF*" (id 8) (at 0 0 0)
        (effects (font (size 1.27 1.27)) hide)
      )
      (symbol "QWIIC_CONNECTORJS-1MM_1_0"
        (rectangle (start 0 -1.27) (end -5.08 8.89)
          (stroke (width 0)) (fill (type background))
        )
      )
      (symbol "QWIIC_CONNECTORJS-1MM_1_1"
        (pin power_in line (at 2.54 0 180) (length 2.54)
          (name "GND" (effects (font (size 1.016 1.016))))
          (number "1" (effects (font (size 1.016 1.016))))
        )
        (pin power_in line (at 2.54 2.54 180) (length 2.54)
          (name "VCC" (effects (font (size 1.016 1.016))))
          (number "2" (effects (font (size 1.016 1.016))))
        )
        (pin passive line (at 2.54 5.08 180) (length 2.54)
          (name "SDA" (effects (font (size 1.016 1.016))))
          (number "3" (effects (font (size 1.016 1.016))))
        )
        (pin passive line (at 2.54 7.62 180) (length 2.54)
          (name "SCL" (effects (font (size 1.016 1.016))))
          (number "4" (effects (font (size 1.016 1.016))))
        )
      )
    )
    (symbol "dk_Transistors-Bipolar-BJT-Single:BC847B_215" (pin_names (offset 0)) (in_bom yes) (on_board yes)
      (property "Reference" "Q" (id 0) (at -3.2004 4.2164 0)
        (effects (font (size 1.524 1.524)) (justify left))
      )
      (property "Value" "BC847B_215" (id 1) (at 5.2324 0 90)
        (effects (font (size 1.524 1.524)))
      )
      (property "Footprint" "digikey-footprints:SOT-23-3" (id 2) (at 5.08 5.08 0)
        (effects (font (size 1.524 1.524)) (justify left) hide)
      )
      (property "Datasheet" "https://assets.nexperia.com/documents/data-sheet/BC847_SER.pdf" (id 3) (at 5.08 7.62 0)
        (effects (font (size 1.524 1.524)) (justify left) hide)
      )
      (property "Digi-Key_PN" "1727-2921-1-ND" (id 4) (at 5.08 10.16 0)
        (effects (font (size 1.524 1.524)) (justify left) hide)
      )
      (property "MPN" "BC847B,215" (id 5) (at 5.08 12.7 0)
        (effects (font (size 1.524 1.524)) (justify left) hide)
      )
      (property "Category" "Discrete Semiconductor Products" (id 6) (at 5.08 15.24 0)
        (effects (font (size 1.524 1.524)) (justify left) hide)
      )
      (property "Family" "Transistors - Bipolar (BJT) - Single" (id 7) (at 5.08 17.78 0)
        (effects (font (size 1.524 1.524)) (justify left) hide)
      )
      (property "DK_Datasheet_Link" "https://assets.nexperia.com/documents/data-sheet/BC847_SER.pdf" (id 8) (at 5.08 20.32 0)
        (effects (font (size 1.524 1.524)) (justify left) hide)
      )
      (property "DK_Detail_Page" "/product-detail/en/nexperia-usa-inc/BC847B,215/1727-2921-1-ND/763460" (id 9) (at 5.08 22.86 0)
        (effects (font (size 1.524 1.524)) (justify left) hide)
      )
      (property "Description" "TRANS NPN 45V 0.1A SOT23" (id 10) (at 5.08 25.4 0)
        (effects (font (size 1.524 1.524)) (justify left) hide)
      )
      (property "Manufacturer" "Nexperia USA Inc." (id 11) (at 5.08 27.94 0)
        (effects (font (size 1.524 1.524)) (justify left) hide)
      )
      (property "Status" "Active" (id 12) (at 5.08 30.48 0)
        (effects (font (size 1.524 1.524)) (justify left) hide)
      )
      (property "ki_keywords" "1727-2921-1-ND" (id 13) (at 0 0 0)
        (effects (font (size 1.27 1.27)) hide)
      )
      (property "ki_description" "TRANS NPN 45V 0.1A SOT23" (id 14) (at 0 0 0)
        (effects (font (size 1.27 1.27)) hide)
      )
      (symbol "BC847B_215_0_1"
        (circle (center 0 0) (radius 3.2512) (stroke (width 0)) (fill (type background)))
        (polyline
          (pts
            (xy -3.81 0)
            (xy -2.54 0)
          )
          (stroke (width 0)) (fill (type none))
        )
        (polyline
          (pts
            (xy -3.556 0)
            (xy 0 0)
          )
          (stroke (width 0)) (fill (type none))
        )
        (polyline
          (pts
            (xy 0 -1.27)
            (xy 2.54 -2.54)
          )
          (stroke (width 0)) (fill (type none))
        )
        (polyline
          (pts
            (xy 0 1.27)
            (xy 2.54 2.54)
          )
          (stroke (width 0)) (fill (type none))
        )
        (polyline
          (pts
            (xy 0 2.54)
            (xy 0 -2.54)
          )
          (stroke (width 0)) (fill (type none))
        )
        (polyline
          (pts
            (xy 1.524 -1.27)
            (xy 2.032 -2.286)
            (xy 1.016 -2.54)
            (xy 1.524 -1.27)
          )
          (stroke (width 0)) (fill (type outline))
        )
      )
      (symbol "BC847B_215_1_1"
        (pin input line (at -5.08 0 0) (length 2.54)
          (name "B" (effects (font (size 1.27 1.27))))
          (number "1" (effects (font (size 1.27 1.27))))
        )
        (pin passive line (at 2.54 -5.08 90) (length 2.54)
          (name "E" (effects (font (size 1.27 1.27))))
          (number "2" (effects (font (size 1.27 1.27))))
        )
        (pin passive line (at 2.54 5.08 270) (length 2.54)
          (name "C" (effects (font (size 1.27 1.27))))
          (number "3" (effects (font (size 1.27 1.27))))
        )
      )
    )
    (symbol "power:+3.3V" (power) (pin_names (offset 0)) (in_bom yes) (on_board yes)
      (property "Reference" "#PWR" (id 0) (at 0 -3.81 0)
        (effects (font (size 1.27 1.27)) hide)
      )
      (property "Value" "+3.3V" (id 1) (at 0 3.556 0)
        (effects (font (size 1.27 1.27)))
      )
      (property "Footprint" "" (id 2) (at 0 0 0)
        (effects (font (size 1.27 1.27)) hide)
      )
      (property "Datasheet" "" (id 3) (at 0 0 0)
        (effects (font (size 1.27 1.27)) hide)
      )
      (property "ki_keywords" "power-flag" (id 4) (at 0 0 0)
        (effects (font (size 1.27 1.27)) hide)
      )
      (property "ki_description" "Power symbol creates a global label with name \"+3.3V\"" (id 5) (at 0 0 0)
        (effects (font (size 1.27 1.27)) hide)
      )
      (symbol "+3.3V_0_1"
        (polyline
          (pts
            (xy -0.762 1.27)
            (xy 0 2.54)
          )
          (stroke (width 0)) (fill (type none))
        )
        (polyline
          (pts
            (xy 0 0)
            (xy 0 2.54)
          )
          (stroke (width 0)) (fill (type none))
        )
        (polyline
          (pts
            (xy 0 2.54)
            (xy 0.762 1.27)
          )
          (stroke (width 0)) (fill (type none))
        )
      )
      (symbol "+3.3V_1_1"
        (pin power_in line (at 0 0 90) (length 0) hide
          (name "+3V3" (effects (font (size 1.27 1.27))))
          (number "1" (effects (font (size 1.27 1.27))))
        )
      )
    )
    (symbol "power:GND" (power) (pin_names (offset 0)) (in_bom yes) (on_board yes)
      (property "Reference" "#PWR" (id 0) (at 0 -6.35 0)
        (effects (font (size 1.27 1.27)) hide)
      )
      (property "Value" "GND" (id 1) (at 0 -3.81 0)
        (effects (font (size 1.27 1.27)))
      )
      (property "Footprint" "" (id 2) (at 0 0 0)
        (effects (font (size 1.27 1.27)) hide)
      )
      (property "Datasheet" "" (id 3) (at 0 0 0)
        (effects (font (size 1.27 1.27)) hide)
      )
      (property "ki_keywords" "power-flag" (id 4) (at 0 0 0)
        (effects (font (size 1.27 1.27)) hide)
      )
      (property "ki_description" "Power symbol creates a global label with name \"GND\" , ground" (id 5) (at 0 0 0)
        (effects (font (size 1.27 1.27)) hide)
      )
      (symbol "GND_0_1"
        (polyline
          (pts
            (xy 0 0)
            (xy 0 -1.27)
            (xy 1.27 -1.27)
            (xy 0 -2.54)
            (xy -1.27 -1.27)
            (xy 0 -1.27)
          )
          (stroke (width 0)) (fill (type none))
        )
      )
      (symbol "GND_1_1"
        (pin power_in line (at 0 0 270) (length 0) hide
          (name "GND" (effects (font (size 1.27 1.27))))
          (number "1" (effects (font (size 1.27 1.27))))
        )
      )
    )
  )

  (junction (at 116.84 88.9) (diameter 1.016) (color 0 0 0 0))
  (junction (at 135.89 96.52) (diameter 1.016) (color 0 0 0 0))
  (junction (at 194.31 43.18) (diameter 1.016) (color 0 0 0 0))

  (wire (pts (xy 21.59 107.95) (xy 27.94 107.95))
    (stroke (width 0) (type solid) (color 0 0 0 0))
    (uuid e2640326-e606-42ec-9f9b-c6d9e419ce80)
  )
  (wire (pts (xy 21.59 110.49) (xy 27.94 110.49))
    (stroke (width 0) (type solid) (color 0 0 0 0))
    (uuid 10d08c80-cead-44ed-9daa-3cac08802731)
  )
  (wire (pts (xy 21.59 113.03) (xy 27.94 113.03))
    (stroke (width 0) (type solid) (color 0 0 0 0))
    (uuid c22e6452-3fc6-4c36-b74d-4c0505cd32bc)
  )
  (wire (pts (xy 21.59 115.57) (xy 27.94 115.57))
    (stroke (width 0) (type solid) (color 0 0 0 0))
    (uuid 593ed235-2053-46f5-992b-80ffe74c7151)
  )
  (wire (pts (xy 21.59 118.11) (xy 27.94 118.11))
    (stroke (width 0) (type solid) (color 0 0 0 0))
    (uuid 80e56246-c311-4be8-966f-597e22523698)
  )
  (wire (pts (xy 30.48 40.64) (xy 36.83 40.64))
    (stroke (width 0) (type solid) (color 0 0 0 0))
    (uuid 4dd67cbf-1efa-4514-827a-8ac020c265cd)
  )
  (wire (pts (xy 30.48 48.26) (xy 36.83 48.26))
    (stroke (width 0) (type solid) (color 0 0 0 0))
    (uuid e9273588-23d1-412a-a756-4c0afa85d1e6)
  )
  (wire (pts (xy 36.83 43.18) (xy 30.48 43.18))
    (stroke (width 0) (type solid) (color 0 0 0 0))
    (uuid f52b50a8-f3ed-44e9-bdb8-1c1b2c1aeb04)
  )
  (wire (pts (xy 36.83 53.34) (xy 30.48 53.34))
    (stroke (width 0) (type solid) (color 0 0 0 0))
    (uuid 23887953-3c95-4caf-b6f6-b18f6784e846)
  )
  (wire (pts (xy 36.83 55.88) (xy 30.48 55.88))
    (stroke (width 0) (type solid) (color 0 0 0 0))
    (uuid 877a04bc-ff01-4bf5-99a2-fcfce73bcc03)
  )
  (wire (pts (xy 48.26 143.51) (xy 45.72 143.51))
    (stroke (width 0) (type solid) (color 0 0 0 0))
    (uuid 4644aa69-a5ad-4ebe-bc64-9961f6d8b1fa)
  )
  (wire (pts (xy 48.26 149.86) (xy 48.26 143.51))
    (stroke (width 0) (type solid) (color 0 0 0 0))
    (uuid 7ef922f2-87e2-4150-a495-ede16842669c)
  )
  (wire (pts (xy 49.53 35.56) (xy 49.53 31.75))
    (stroke (width 0) (type solid) (color 0 0 0 0))
    (uuid cedc4a42-38a5-40b3-ae44-e97d4deaafc9)
  )
  (wire (pts (xy 49.53 66.04) (xy 49.53 69.85))
    (stroke (width 0) (type solid) (color 0 0 0 0))
    (uuid 7d6d7d37-792b-4c3f-9609-a9bff647d53c)
  )
  (wire (pts (xy 50.8 149.86) (xy 50.8 143.51))
    (stroke (width 0) (type solid) (color 0 0 0 0))
    (uuid 5b494b08-e136-448b-8422-fb73d2c92228)
  )
  (wire (pts (xy 53.34 149.86) (xy 53.34 143.51))
    (stroke (width 0) (type solid) (color 0 0 0 0))
    (uuid 6351511a-304d-4b29-b6b7-19eb896b5d6e)
  )
  (wire (pts (xy 55.88 149.86) (xy 55.88 143.51))
    (stroke (width 0) (type solid) (color 0 0 0 0))
    (uuid 7ff3ee3a-24a2-4e86-a017-88cd419e2e87)
  )
  (wire (pts (xy 58.42 149.86) (xy 58.42 143.51))
    (stroke (width 0) (type solid) (color 0 0 0 0))
    (uuid 3810c91e-1b4a-4f4e-997e-14dc57cb402a)
  )
  (wire (pts (xy 60.96 149.86) (xy 60.96 143.51))
    (stroke (width 0) (type solid) (color 0 0 0 0))
    (uuid 45bf297e-177b-4c78-9938-b38b62e76850)
  )
  (wire (pts (xy 62.23 40.64) (xy 69.85 40.64))
    (stroke (width 0) (type solid) (color 0 0 0 0))
    (uuid 66d81d85-0559-4345-9da8-da7def2a6d6f)
  )
  (wire (pts (xy 62.23 48.26) (xy 69.85 48.26))
    (stroke (width 0) (type solid) (color 0 0 0 0))
    (uuid 36c5d057-b4e1-49c6-bca6-d8985a730872)
  )
  (wire (pts (xy 62.23 53.34) (xy 69.85 53.34))
    (stroke (width 0) (type solid) (color 0 0 0 0))
    (uuid c3310899-ee87-4254-a895-c475a319ead3)
  )
  (wire (pts (xy 62.23 60.96) (xy 69.85 60.96))
    (stroke (width 0) (type solid) (color 0 0 0 0))
    (uuid 09ed1c66-865b-4856-aaca-c1a16fb381ae)
  )
  (wire (pts (xy 63.5 106.68) (xy 69.85 106.68))
    (stroke (width 0) (type solid) (color 0 0 0 0))
    (uuid ea7bf92b-70af-40aa-8b02-4ba473bf8005)
  )
  (wire (pts (xy 63.5 109.22) (xy 69.85 109.22))
    (stroke (width 0) (type solid) (color 0 0 0 0))
    (uuid b20b4291-05a9-40c3-805a-7941989c348f)
  )
  (wire (pts (xy 63.5 111.76) (xy 69.85 111.76))
    (stroke (width 0) (type solid) (color 0 0 0 0))
    (uuid a6b769dd-ca39-4e93-a1b5-a95446165c3c)
  )
  (wire (pts (xy 63.5 114.3) (xy 69.85 114.3))
    (stroke (width 0) (type solid) (color 0 0 0 0))
    (uuid 0f415a72-a05d-4e0a-9f04-0063286eff2b)
  )
  (wire (pts (xy 63.5 116.84) (xy 69.85 116.84))
    (stroke (width 0) (type solid) (color 0 0 0 0))
    (uuid f6ba27e9-d1fe-4b75-a3a6-62bd9a5f2d7c)
  )
  (wire (pts (xy 69.85 43.18) (xy 62.23 43.18))
    (stroke (width 0) (type solid) (color 0 0 0 0))
    (uuid bd523cfb-5f12-4c8a-95b3-760c3615f291)
  )
  (wire (pts (xy 69.85 45.72) (xy 62.23 45.72))
    (stroke (width 0) (type solid) (color 0 0 0 0))
    (uuid 8464c28e-dcec-48e6-9ac5-91ceac572bfb)
  )
  (wire (pts (xy 69.85 50.8) (xy 62.23 50.8))
    (stroke (width 0) (type solid) (color 0 0 0 0))
    (uuid 64e92d21-e891-4414-be05-c4cb93d9f606)
  )
  (wire (pts (xy 69.85 55.88) (xy 62.23 55.88))
    (stroke (width 0) (type solid) (color 0 0 0 0))
    (uuid cd665f9a-6460-49b5-9abd-4e4841b7a706)
  )
  (wire (pts (xy 69.85 58.42) (xy 62.23 58.42))
    (stroke (width 0) (type solid) (color 0 0 0 0))
    (uuid f8528894-d78c-451b-b7ac-b0c6f4e3ef05)
  )
  (wire (pts (xy 104.14 41.91) (xy 109.22 41.91))
    (stroke (width 0) (type solid) (color 0 0 0 0))
    (uuid 5e6e2cbc-d4ca-423d-8448-6babe873e23e)
  )
  (wire (pts (xy 104.14 44.45) (xy 109.22 44.45))
    (stroke (width 0) (type solid) (color 0 0 0 0))
    (uuid f5306e13-9da8-49e6-9a65-3ea40b7a55fe)
  )
  (wire (pts (xy 104.14 46.99) (xy 113.03 46.99))
    (stroke (width 0) (type solid) (color 0 0 0 0))
    (uuid 222b6bc1-709e-407b-914d-52b1dc6666d5)
  )
  (wire (pts (xy 104.14 49.53) (xy 109.22 49.53))
    (stroke (width 0) (type solid) (color 0 0 0 0))
    (uuid d74a5db7-77a6-48b7-902a-0f97be150af5)
  )
  (wire (pts (xy 111.76 88.9) (xy 116.84 88.9))
    (stroke (width 0) (type solid) (color 0 0 0 0))
    (uuid d4991d61-ff7f-49a2-95d8-d89b3c6fae64)
  )
  (wire (pts (xy 111.76 104.14) (xy 116.84 104.14))
    (stroke (width 0) (type solid) (color 0 0 0 0))
    (uuid a7ec1e1d-9414-4ffa-8646-aa96f068404f)
  )
  (wire (pts (xy 116.84 88.9) (xy 119.38 88.9))
    (stroke (width 0) (type solid) (color 0 0 0 0))
    (uuid b4bc6e91-a4d5-4c26-9d43-41a2f3764ebe)
  )
  (wire (pts (xy 116.84 91.44) (xy 116.84 88.9))
    (stroke (width 0) (type solid) (color 0 0 0 0))
    (uuid 7fa1a6cb-aa4c-4f43-b1c0-80f1a68093b6)
  )
  (wire (pts (xy 116.84 104.14) (xy 116.84 101.6))
    (stroke (width 0) (type solid) (color 0 0 0 0))
    (uuid c24ae160-049e-4773-8531-678f4d84d70b)
  )
  (wire (pts (xy 124.46 88.9) (xy 128.27 88.9))
    (stroke (width 0) (type solid) (color 0 0 0 0))
    (uuid 6d2a0d0c-6fcb-4a51-b976-d505b584369e)
  )
  (wire (pts (xy 124.46 96.52) (xy 128.27 96.52))
    (stroke (width 0) (type solid) (color 0 0 0 0))
    (uuid 2269f232-591f-4371-b9a6-432694bd955c)
  )
  (wire (pts (xy 132.08 38.1) (xy 129.54 38.1))
    (stroke (width 0) (type solid) (color 0 0 0 0))
    (uuid 35b7a073-460e-4dd9-805a-2cafa1f75aa3)
  )
  (wire (pts (xy 132.08 41.91) (xy 132.08 38.1))
    (stroke (width 0) (type solid) (color 0 0 0 0))
    (uuid 5e7a0027-3091-494f-b2b1-692388974960)
  )
  (wire (pts (xy 133.35 96.52) (xy 135.89 96.52))
    (stroke (width 0) (type solid) (color 0 0 0 0))
    (uuid cbf0e0fb-f067-4b4d-a5a9-1c15e4f34ea0)
  )
  (wire (pts (xy 135.89 41.91) (xy 132.08 41.91))
    (stroke (width 0) (type solid) (color 0 0 0 0))
    (uuid 3ffabca1-912f-40d8-a399-0644773eeacc)
  )
  (wire (pts (xy 135.89 44.45) (xy 123.19 44.45))
    (stroke (width 0) (type solid) (color 0 0 0 0))
    (uuid a7e5d3a0-fda3-4ea1-8e8a-46689803abab)
  )
  (wire (pts (xy 135.89 46.99) (xy 129.54 46.99))
    (stroke (width 0) (type solid) (color 0 0 0 0))
    (uuid a74ee3c2-28a1-41c0-b465-5a54573b0a05)
  )
  (wire (pts (xy 135.89 49.53) (xy 129.54 49.53))
    (stroke (width 0) (type solid) (color 0 0 0 0))
    (uuid 7fa5a4ca-aa1c-42ff-aff1-05d61b835b11)
  )
  (wire (pts (xy 135.89 81.28) (xy 139.7 81.28))
    (stroke (width 0) (type solid) (color 0 0 0 0))
    (uuid 435d7e34-65e3-4ada-9343-494bcd246602)
  )
  (wire (pts (xy 135.89 83.82) (xy 135.89 81.28))
    (stroke (width 0) (type solid) (color 0 0 0 0))
    (uuid 8df5edc2-4757-4bad-bc96-765e249584f6)
  )
  (wire (pts (xy 135.89 93.98) (xy 135.89 96.52))
    (stroke (width 0) (type solid) (color 0 0 0 0))
    (uuid a4e48881-0912-47b0-a5b0-a4f8d60c42c6)
  )
  (wire (pts (xy 135.89 96.52) (xy 142.24 96.52))
    (stroke (width 0) (type solid) (color 0 0 0 0))
    (uuid 2b485544-4174-4211-b952-f8f0cb51d4fa)
  )
  (wire (pts (xy 177.8 43.18) (xy 184.15 43.18))
    (stroke (width 0) (type solid) (color 0 0 0 0))
    (uuid c517d196-e284-44b1-8d08-2975300c05f7)
  )
  (wire (pts (xy 189.23 43.18) (xy 194.31 43.18))
    (stroke (width 0) (type solid) (color 0 0 0 0))
    (uuid 2da4d0f6-5d5d-4c14-8644-3a6dc3deef4a)
  )
  (wire (pts (xy 194.31 43.18) (xy 194.31 40.64))
    (stroke (width 0) (type solid) (color 0 0 0 0))
    (uuid a58c3da2-eb5a-4bb4-bc75-15faba07ef1a)
  )
  (wire (pts (xy 194.31 43.18) (xy 199.39 43.18))
    (stroke (width 0) (type solid) (color 0 0 0 0))
    (uuid 6385feb9-e766-49f4-b987-010fec75dff2)
  )
  (wire (pts (xy 198.12 81.28) (xy 204.47 81.28))
    (stroke (width 0) (type solid) (color 0 0 0 0))
    (uuid a47c448c-d88a-4f3d-a757-bcef3a060bcd)
  )
  (wire (pts (xy 204.47 43.18) (xy 210.82 43.18))
    (stroke (width 0) (type solid) (color 0 0 0 0))
    (uuid dc2021f0-7030-4e73-ae1b-86141f0b284c)
  )
  (wire (pts (xy 212.09 81.28) (xy 219.71 81.28))
    (stroke (width 0) (type solid) (color 0 0 0 0))
    (uuid 23064ac7-2143-4a7c-bc60-5a3850180c69)
  )
  (polyline (pts (xy 13.97 13.97) (xy 13.97 78.74))
    (stroke (width 0) (type dash) (color 0 0 0 0))
    (uuid 2eca28dd-f0fd-42e4-b514-6bd996ad9009)
  )
  (polyline (pts (xy 13.97 78.74) (xy 80.01 78.74))
    (stroke (width 0) (type dash) (color 0 0 0 0))
    (uuid b2cb5c15-8a5a-410f-be8f-90102ca05971)
  )
  (polyline (pts (xy 13.97 81.28) (xy 13.97 121.92))
    (stroke (width 0) (type dash) (color 0 0 0 0))
    (uuid 54200d3c-964b-437a-8f35-897e3f53e32a)
  )
  (polyline (pts (xy 13.97 121.92) (xy 80.01 121.92))
    (stroke (width 0) (type dash) (color 0 0 0 0))
    (uuid b75f620e-56b5-4d23-b7eb-ed3c879d742f)
  )
  (polyline (pts (xy 13.97 124.46) (xy 13.97 162.56))
    (stroke (width 0) (type dash) (color 0 0 0 0))
    (uuid 06b9512f-f5f0-490f-bcf4-b829b3af178f)
  )
  (polyline (pts (xy 13.97 162.56) (xy 100.33 162.56))
    (stroke (width 0) (type dash) (color 0 0 0 0))
    (uuid f5e128ab-2cc1-4660-af38-8c5b52dbb4bb)
  )
  (polyline (pts (xy 80.01 13.97) (xy 13.97 13.97))
    (stroke (width 0) (type dash) (color 0 0 0 0))
    (uuid b6ed968e-067a-4364-8720-8a77bba88ddb)
  )
  (polyline (pts (xy 80.01 78.74) (xy 80.01 13.97))
    (stroke (width 0) (type dash) (color 0 0 0 0))
    (uuid 5f9ccf69-e633-40b2-9114-d9d963a867f9)
  )
  (polyline (pts (xy 80.01 81.28) (xy 13.97 81.28))
    (stroke (width 0) (type dash) (color 0 0 0 0))
    (uuid 2df6091b-533e-4266-b0c5-4d072c24a042)
  )
  (polyline (pts (xy 80.01 121.92) (xy 80.01 81.28))
    (stroke (width 0) (type dash) (color 0 0 0 0))
    (uuid b1a9ffef-c693-4f01-835b-9cf9d6e539ec)
  )
  (polyline (pts (xy 82.55 13.97) (xy 82.55 62.23))
    (stroke (width 0) (type dash) (color 0 0 0 0))
    (uuid e39ddfac-3c74-4114-aea9-d5379a05b649)
  )
  (polyline (pts (xy 82.55 62.23) (xy 167.64 62.23))
    (stroke (width 0) (type dash) (color 0 0 0 0))
    (uuid c677640d-2d6e-43b6-9d1c-587e0e76b5a8)
  )
  (polyline (pts (xy 82.55 64.77) (xy 82.55 113.03))
    (stroke (width 0) (type dash) (color 0 0 0 0))
    (uuid 0232c108-e95b-41f9-9ba7-75c441048efe)
  )
  (polyline (pts (xy 82.55 113.03) (xy 167.64 113.03))
    (stroke (width 0) (type dash) (color 0 0 0 0))
    (uuid 12ec11c8-bac7-4cac-bd99-d9ac37b472aa)
  )
  (polyline (pts (xy 100.33 124.46) (xy 13.97 124.46))
    (stroke (width 0) (type dash) (color 0 0 0 0))
    (uuid da1dc8bc-88ad-477d-b3d6-6e68ff480065)
  )
  (polyline (pts (xy 100.33 162.56) (xy 100.33 124.46))
    (stroke (width 0) (type dash) (color 0 0 0 0))
    (uuid 923d51d0-73f9-4ca4-90bd-f313c09eb23a)
  )
  (polyline (pts (xy 167.64 13.97) (xy 82.55 13.97))
    (stroke (width 0) (type dash) (color 0 0 0 0))
    (uuid 33b1c4d2-ee00-4b51-9b3f-2468af6757d9)
  )
  (polyline (pts (xy 167.64 62.23) (xy 167.64 13.97))
    (stroke (width 0) (type dash) (color 0 0 0 0))
    (uuid 0e5731ec-68d3-4b17-bfe5-cebf7a5a3cfb)
  )
  (polyline (pts (xy 167.64 64.77) (xy 82.55 64.77))
    (stroke (width 0) (type dash) (color 0 0 0 0))
    (uuid 22356de0-d537-4ce2-9abe-aa1782bc5d1f)
  )
  (polyline (pts (xy 167.64 113.03) (xy 167.64 64.77))
    (stroke (width 0) (type dash) (color 0 0 0 0))
    (uuid ffe2c0ed-5b23-41f6-a930-10f6ae3fb895)
  )
  (polyline (pts (xy 170.18 13.97) (xy 170.18 53.34))
    (stroke (width 0) (type dash) (color 0 0 0 0))
    (uuid f3521f1d-2cf7-4d6f-84c0-32331fc6be8f)
  )
  (polyline (pts (xy 170.18 53.34) (xy 222.25 53.34))
    (stroke (width 0) (type dash) (color 0 0 0 0))
    (uuid 727a225c-6826-4724-9527-9520d64bd4c1)
  )
  (polyline (pts (xy 170.18 55.88) (xy 170.18 91.44))
    (stroke (width 0) (type dash) (color 0 0 0 0))
    (uuid 57356d3d-03bb-4d98-9a6c-e230df2898a5)
  )
  (polyline (pts (xy 170.18 91.44) (xy 243.84 91.44))
    (stroke (width 0) (type dash) (color 0 0 0 0))
    (uuid 3565f43b-bd1e-4d4e-ab66-d23534bcb4f3)
  )
  (polyline (pts (xy 222.25 13.97) (xy 170.18 13.97))
    (stroke (width 0) (type dash) (color 0 0 0 0))
    (uuid f8ed56b3-b902-466d-b947-583d3928bc28)
  )
  (polyline (pts (xy 222.25 53.34) (xy 222.25 13.97))
    (stroke (width 0) (type dash) (color 0 0 0 0))
    (uuid 0274580f-95e9-4580-8e73-1df60f98897a)
  )
  (polyline (pts (xy 243.84 55.88) (xy 170.18 55.88))
    (stroke (width 0) (type dash) (color 0 0 0 0))
    (uuid 989ad0fb-824f-4174-9850-3acb905f8877)
  )
  (polyline (pts (xy 243.84 91.44) (xy 243.84 55.88))
    (stroke (width 0) (type dash) (color 0 0 0 0))
    (uuid a9141d6b-3746-484d-a5c4-0172d0d7e298)
  )

  (text "Programming header" (at 20.32 133.35 0)
    (effects (font (size 4.572 4.572) (thickness 0.9144) bold) (justify left bottom))
    (uuid 8fe773d9-f82c-4a3a-8a39-d384f022a0c2)
  )
  (text "General I/O" (at 26.67 91.44 0)
    (effects (font (size 4.572 4.572) (thickness 0.9144) bold) (justify left bottom))
    (uuid be9277c3-d523-4f03-97bf-56839f845523)
  )
  (text "ESP8266" (at 34.29 22.86 0)
    (effects (font (size 4.572 4.572) (thickness 0.9144) bold) (justify left bottom))
    (uuid c143989d-bff8-40d1-9600-e8804a72bb76)
  )
  (text "QWIIC sockets" (at 99.06 24.13 0)
    (effects (font (size 4.572 4.572) (thickness 0.9144) bold) (justify left bottom))
    (uuid 35c6dfbb-cb2e-44fe-a364-830ef06edf9c)
  )
  (text "Reset circuit" (at 101.6 74.93 0)
    (effects (font (size 4.572 4.572) (thickness 0.9144) bold) (justify left bottom))
    (uuid 93d60bdc-59f4-48d2-9776-8684bd79448e)
  )
  (text "Deepsleep enable" (at 175.26 66.04 0)
    (effects (font (size 4.572 4.572) (thickness 0.9144) bold) (justify left bottom))
    (uuid d9163b49-4db1-4447-b441-fdeff58ba381)
  )
  (text "I2C pullup" (at 177.8 26.67 0)
    (effects (font (size 4.572 4.572) (thickness 0.9144) bold) (justify left bottom))
    (uuid 8f2acbe3-d47e-4059-a4fc-3120c1bfdde6)
  )

  (label "EN" (at 21.59 107.95 0)
    (effects (font (size 1.27 1.27)) (justify left bottom))
    (uuid 0c69e2ee-8b24-47c4-9db3-957165bca7bd)
  )
  (label "IO12" (at 21.59 110.49 0)
    (effects (font (size 1.27 1.27)) (justify left bottom))
    (uuid bb9faff1-dfe8-46da-9156-93972721bbd6)
  )
  (label "IO13" (at 21.59 113.03 0)
    (effects (font (size 1.27 1.27)) (justify left bottom))
    (uuid bfbf7d43-32c2-4cee-9ded-c75303bff0c1)
  )
  (label "IO15" (at 21.59 115.57 0)
    (effects (font (size 1.27 1.27)) (justify left bottom))
    (uuid 0f7e6b85-2df9-4cc7-805f-6e3a6b23b216)
  )
  (label "IO0" (at 21.59 118.11 0)
    (effects (font (size 1.27 1.27)) (justify left bottom))
    (uuid 27df399f-7d30-4728-97d5-734c5ee4f9c1)
  )
  (label "EN" (at 30.48 40.64 0)
    (effects (font (size 1.27 1.27)) (justify left bottom))
    (uuid b7e8c3d7-669b-4fcf-8fa7-7a3175f52284)
  )
  (label "RST" (at 30.48 43.18 0)
    (effects (font (size 1.27 1.27)) (justify left bottom))
    (uuid 4318440e-3351-4d1c-ad7a-82226ed07aca)
  )
  (label "TOUT" (at 30.48 48.26 0)
    (effects (font (size 1.27 1.27)) (justify left bottom))
    (uuid 1aab0b40-f879-4f5b-824d-777235c6e078)
  )
  (label "RXD" (at 30.48 53.34 0)
    (effects (font (size 1.27 1.27)) (justify left bottom))
    (uuid 5497c6f5-0bce-4f2d-a425-67633c075283)
  )
  (label "TXD" (at 30.48 55.88 0)
    (effects (font (size 1.27 1.27)) (justify left bottom))
    (uuid 07415f6f-fcc2-4e17-93a6-61e412bc79f2)
  )
  (label "CTS" (at 50.8 143.51 270)
    (effects (font (size 1.27 1.27)) (justify right bottom))
    (uuid 273b249d-086d-49b7-b1af-0e5ec4579903)
  )
  (label "TXD" (at 55.88 143.51 270)
    (effects (font (size 1.27 1.27)) (justify right bottom))
    (uuid e04554cf-da88-45e5-aa73-26b5a4ae0e49)
  )
  (label "RXD" (at 58.42 143.51 270)
    (effects (font (size 1.27 1.27)) (justify right bottom))
    (uuid 941a5784-2fdd-4339-9f04-7c4537d8f748)
  )
  (label "DTR" (at 60.96 143.51 270)
    (effects (font (size 1.27 1.27)) (justify right bottom))
    (uuid 103611ea-a890-4b2e-9c1a-267372e1c2e8)
  )
  (label "IO0" (at 69.85 40.64 180)
    (effects (font (size 1.27 1.27)) (justify right bottom))
    (uuid 5721fd35-abe5-4b3d-b8f0-52ed29d6a6b4)
  )
  (label "SDA" (at 69.85 43.18 180)
    (effects (font (size 1.27 1.27)) (justify right bottom))
    (uuid 72669551-b7a4-4518-a0b3-7ebc84b38f3e)
  )
  (label "IO4" (at 69.85 45.72 180)
    (effects (font (size 1.27 1.27)) (justify right bottom))
    (uuid d10d68c5-66e6-4301-950f-e791efa1720c)
  )
  (label "IO5" (at 69.85 48.26 180)
    (effects (font (size 1.27 1.27)) (justify right bottom))
    (uuid 91f12ab5-e329-46e0-8c7d-0c1d09157afd)
  )
  (label "IO12" (at 69.85 50.8 180)
    (effects (font (size 1.27 1.27)) (justify right bottom))
    (uuid 4bdef21b-a5c0-41cc-a22c-562d5f15cd60)
  )
  (label "IO13" (at 69.85 53.34 180)
    (effects (font (size 1.27 1.27)) (justify right bottom))
    (uuid 8c413eaa-cb11-4d70-9006-9f351e4e71ed)
  )
  (label "SCL" (at 69.85 55.88 180)
    (effects (font (size 1.27 1.27)) (justify right bottom))
    (uuid 24394b67-bc18-4f76-bfc4-4f052d03ecf1)
  )
  (label "IO15" (at 69.85 58.42 180)
    (effects (font (size 1.27 1.27)) (justify right bottom))
    (uuid 5d009674-b101-4148-8acd-1aeea41e5d71)
  )
  (label "IO16" (at 69.85 60.96 180)
    (effects (font (size 1.27 1.27)) (justify right bottom))
    (uuid 961d64ed-d22c-4f9f-8d7f-784547f99788)
  )
  (label "IO16" (at 69.85 106.68 180)
    (effects (font (size 1.27 1.27)) (justify right bottom))
    (uuid 99546e62-0cae-4ca1-897c-930eecc8d8df)
  )
  (label "TOUT" (at 69.85 109.22 180)
    (effects (font (size 1.27 1.27)) (justify right bottom))
    (uuid 074a577d-6182-4737-a18c-e3e9245f4c3f)
  )
  (label "RST" (at 69.85 111.76 180)
    (effects (font (size 1.27 1.27)) (justify right bottom))
    (uuid 51288b39-6857-48a8-be49-0371ed1a91ae)
  )
  (label "IO5" (at 69.85 114.3 180)
    (effects (font (size 1.27 1.27)) (justify right bottom))
    (uuid 5c68af90-a5c4-4a25-843b-1bdb4aaeec19)
  )
  (label "IO4" (at 69.85 116.84 180)
    (effects (font (size 1.27 1.27)) (justify right bottom))
    (uuid 42324944-4ff6-4ab4-a0af-06b422f54237)
  )
  (label "SCL" (at 109.22 41.91 180)
    (effects (font (size 1.27 1.27)) (justify right bottom))
    (uuid f73c1998-7f96-4e43-90d7-2a0da7595a7c)
  )
  (label "SDA" (at 109.22 44.45 180)
    (effects (font (size 1.27 1.27)) (justify right bottom))
    (uuid dcd6501e-172f-44ed-a26a-ecd30f755fa6)
  )
  (label "CTS" (at 111.76 88.9 0)
    (effects (font (size 1.27 1.27)) (justify left bottom))
    (uuid f207eeb3-76a2-4eec-9e16-e2679acce004)
  )
  (label "EN" (at 111.76 104.14 0)
    (effects (font (size 1.27 1.27)) (justify left bottom))
    (uuid 449bee43-4742-464e-af55-d51c83dfb032)
  )
  (label "SDA" (at 129.54 46.99 0)
    (effects (font (size 1.27 1.27)) (justify left bottom))
    (uuid 6077128e-6a5a-4c02-ae92-9adf0ea02d97)
  )
  (label "SCL" (at 129.54 49.53 0)
    (effects (font (size 1.27 1.27)) (justify left bottom))
    (uuid e190ab95-ad88-4685-99d2-289f39f60522)
  )
  (label "IO0" (at 139.7 81.28 180)
    (effects (font (size 1.27 1.27)) (justify right bottom))
    (uuid 382346b6-fe64-4a24-9b64-1320c1ed1410)
  )
  (label "DTR" (at 142.24 96.52 180)
    (effects (font (size 1.27 1.27)) (justify right bottom))
    (uuid 19b914d0-a798-4400-8274-0f31a7d1b470)
  )
  (label "SDA" (at 177.8 43.18 0)
    (effects (font (size 1.27 1.27)) (justify left bottom))
    (uuid e4aaee04-b8cc-42d7-8746-c56a848f3143)
  )
  (label "IO16" (at 198.12 81.28 0)
    (effects (font (size 1.27 1.27)) (justify left bottom))
    (uuid 7fa78141-592a-4a6b-a803-be5fa4b84592)
  )
  (label "SCL" (at 210.82 43.18 180)
    (effects (font (size 1.27 1.27)) (justify right bottom))
    (uuid a31dde33-8bc3-4d6d-b5f0-78bac1aca336)
  )
  (label "RST" (at 219.71 81.28 180)
    (effects (font (size 1.27 1.27)) (justify right bottom))
    (uuid 239977fe-41e7-4a21-a613-ae94aecbb1e2)
  )

  (symbol (lib_id "power:+3.3V") (at 49.53 31.75 0) (unit 1)
    (in_bom yes) (on_board yes)
    (uuid 00000000-0000-0000-0000-0000600bee57)
    (property "Reference" "#PWR0101" (id 0) (at 49.53 35.56 0)
      (effects (font (size 1.27 1.27)) hide)
    )
    (property "Value" "+3.3V" (id 1) (at 49.911 27.3558 0))
    (property "Footprint" "" (id 2) (at 49.53 31.75 0)
      (effects (font (size 1.27 1.27)) hide)
    )
    (property "Datasheet" "" (id 3) (at 49.53 31.75 0)
      (effects (font (size 1.27 1.27)) hide)
    )
    (pin "1" (uuid 397ba27a-22d3-4d25-8508-f841a75583aa))
  )

  (symbol (lib_id "power:+3.3V") (at 53.34 143.51 0) (unit 1)
    (in_bom yes) (on_board yes)
    (uuid 00000000-0000-0000-0000-0000600dfb39)
    (property "Reference" "#PWR0108" (id 0) (at 53.34 147.32 0)
      (effects (font (size 1.27 1.27)) hide)
    )
    (property "Value" "+3.3V" (id 1) (at 53.721 139.1158 0))
    (property "Footprint" "" (id 2) (at 53.34 143.51 0)
      (effects (font (size 1.27 1.27)) hide)
    )
    (property "Datasheet" "" (id 3) (at 53.34 143.51 0)
      (effects (font (size 1.27 1.27)) hide)
    )
    (pin "1" (uuid 3e23b28a-334b-4a93-a9da-923bd38b7d57))
  )

  (symbol (lib_id "power:+3.3V") (at 113.03 46.99 0) (unit 1)
    (in_bom yes) (on_board yes)
    (uuid 00000000-0000-0000-0000-0000600c3501)
    (property "Reference" "#PWR0103" (id 0) (at 113.03 50.8 0)
      (effects (font (size 1.27 1.27)) hide)
    )
    (property "Value" "+3.3V" (id 1) (at 113.411 42.5958 0))
    (property "Footprint" "" (id 2) (at 113.03 46.99 0)
      (effects (font (size 1.27 1.27)) hide)
    )
    (property "Datasheet" "" (id 3) (at 113.03 46.99 0)
      (effects (font (size 1.27 1.27)) hide)
    )
    (pin "1" (uuid 2e22f1b7-59fb-40a9-9f08-36c83545f2ea))
  )

  (symbol (lib_id "power:+3.3V") (at 123.19 44.45 0) (unit 1)
    (in_bom yes) (on_board yes)
    (uuid 00000000-0000-0000-0000-0000600c828f)
    (property "Reference" "#PWR0105" (id 0) (at 123.19 48.26 0)
      (effects (font (size 1.27 1.27)) hide)
    )
    (property "Value" "+3.3V" (id 1) (at 123.571 40.0558 0))
    (property "Footprint" "" (id 2) (at 123.19 44.45 0)
      (effects (font (size 1.27 1.27)) hide)
    )
    (property "Datasheet" "" (id 3) (at 123.19 44.45 0)
      (effects (font (size 1.27 1.27)) hide)
    )
    (pin "1" (uuid 577dc3d0-3b79-49c1-bfe7-13c1e8aaab69))
  )

  (symbol (lib_id "power:+3.3V") (at 194.31 40.64 0) (unit 1)
    (in_bom yes) (on_board yes)
    (uuid 00000000-0000-0000-0000-0000600f3215)
    (property "Reference" "#PWR0109" (id 0) (at 194.31 44.45 0)
      (effects (font (size 1.27 1.27)) hide)
    )
    (property "Value" "+3.3V" (id 1) (at 194.691 36.2458 0))
    (property "Footprint" "" (id 2) (at 194.31 40.64 0)
      (effects (font (size 1.27 1.27)) hide)
    )
    (property "Datasheet" "" (id 3) (at 194.31 40.64 0)
      (effects (font (size 1.27 1.27)) hide)
    )
    (pin "1" (uuid 01e3ef37-f6ca-421c-a4f1-db03ed99dab0))
  )

  (symbol (lib_id "power:GND") (at 45.72 143.51 0) (unit 1)
    (in_bom yes) (on_board yes)
    (uuid 00000000-0000-0000-0000-0000600cdbab)
    (property "Reference" "#PWR0107" (id 0) (at 45.72 149.86 0)
      (effects (font (size 1.27 1.27)) hide)
    )
    (property "Value" "GND" (id 1) (at 45.847 146.7612 0)
      (effects (font (size 1.27 1.27)) (justify right))
    )
    (property "Footprint" "" (id 2) (at 45.72 143.51 0)
      (effects (font (size 1.27 1.27)) hide)
    )
    (property "Datasheet" "" (id 3) (at 45.72 143.51 0)
      (effects (font (size 1.27 1.27)) hide)
    )
    (pin "1" (uuid 413ab5a9-210e-43f4-9078-08bde376edba))
  )

  (symbol (lib_id "power:GND") (at 49.53 69.85 0) (unit 1)
    (in_bom yes) (on_board yes)
    (uuid 00000000-0000-0000-0000-0000600bf9ac)
    (property "Reference" "#PWR0102" (id 0) (at 49.53 76.2 0)
      (effects (font (size 1.27 1.27)) hide)
    )
    (property "Value" "GND" (id 1) (at 49.657 74.2442 0))
    (property "Footprint" "" (id 2) (at 49.53 69.85 0)
      (effects (font (size 1.27 1.27)) hide)
    )
    (property "Datasheet" "" (id 3) (at 49.53 69.85 0)
      (effects (font (size 1.27 1.27)) hide)
    )
    (pin "1" (uuid 23f3ebf4-810c-4a9e-b53e-06a0a7f42e4d))
  )

  (symbol (lib_id "power:GND") (at 109.22 49.53 0) (unit 1)
    (in_bom yes) (on_board yes)
    (uuid 00000000-0000-0000-0000-0000600c48b6)
    (property "Reference" "#PWR0104" (id 0) (at 109.22 55.88 0)
      (effects (font (size 1.27 1.27)) hide)
    )
    (property "Value" "GND" (id 1) (at 109.347 53.9242 0))
    (property "Footprint" "" (id 2) (at 109.22 49.53 0)
      (effects (font (size 1.27 1.27)) hide)
    )
    (property "Datasheet" "" (id 3) (at 109.22 49.53 0)
      (effects (font (size 1.27 1.27)) hide)
    )
    (pin "1" (uuid 1d56caf9-7925-4fe0-8221-7e7b6aebaa17))
  )

  (symbol (lib_id "power:GND") (at 129.54 38.1 0) (unit 1)
    (in_bom yes) (on_board yes)
    (uuid 00000000-0000-0000-0000-0000600c8852)
    (property "Reference" "#PWR0106" (id 0) (at 129.54 44.45 0)
      (effects (font (size 1.27 1.27)) hide)
    )
    (property "Value" "GND" (id 1) (at 129.667 42.4942 0))
    (property "Footprint" "" (id 2) (at 129.54 38.1 0)
      (effects (font (size 1.27 1.27)) hide)
    )
    (property "Datasheet" "" (id 3) (at 129.54 38.1 0)
      (effects (font (size 1.27 1.27)) hide)
    )
    (pin "1" (uuid 8d0e2994-cedb-4ee0-a952-ff7cd82d8f79))
  )

  (symbol (lib_id "Device:R_Small") (at 121.92 88.9 270) (unit 1)
    (in_bom yes) (on_board yes)
    (uuid 00000000-0000-0000-0000-0000600fd925)
    (property "Reference" "R4" (id 0) (at 121.92 83.9216 90))
    (property "Value" "10K" (id 1) (at 121.92 86.233 90))
    (property "Footprint" "Resistor_SMD:R_0603_1608Metric" (id 2) (at 121.92 88.9 0)
      (effects (font (size 1.27 1.27)) hide)
    )
    (property "Datasheet" "~" (id 3) (at 121.92 88.9 0)
      (effects (font (size 1.27 1.27)) hide)
    )
    (pin "1" (uuid b65d007c-add0-4549-96ff-5d7dbe60eafc))
    (pin "2" (uuid 6a518590-31aa-4b98-9d30-21b975cf6fb8))
  )

  (symbol (lib_id "Device:R_Small") (at 130.81 96.52 270) (unit 1)
    (in_bom yes) (on_board yes)
    (uuid 00000000-0000-0000-0000-0000600fddbe)
    (property "Reference" "R3" (id 0) (at 130.81 101.6 90))
    (property "Value" "10K" (id 1) (at 130.81 99.06 90))
    (property "Footprint" "Resistor_SMD:R_0603_1608Metric" (id 2) (at 130.81 96.52 0)
      (effects (font (size 1.27 1.27)) hide)
    )
    (property "Datasheet" "~" (id 3) (at 130.81 96.52 0)
      (effects (font (size 1.27 1.27)) hide)
    )
    (pin "1" (uuid f20bd642-9a15-4b7d-829a-2467238f1dd5))
    (pin "2" (uuid b2646539-78c2-4be0-8709-39fc92f4bea7))
  )

  (symbol (lib_id "Device:R_Small") (at 186.69 43.18 270) (unit 1)
    (in_bom yes) (on_board yes)
    (uuid 00000000-0000-0000-0000-0000600f13af)
    (property "Reference" "R1" (id 0) (at 186.69 38.2016 90))
    (property "Value" "2K" (id 1) (at 186.69 40.513 90))
    (property "Footprint" "Resistor_SMD:R_0603_1608Metric" (id 2) (at 186.69 43.18 0)
      (effects (font (size 1.27 1.27)) hide)
    )
    (property "Datasheet" "~" (id 3) (at 186.69 43.18 0)
      (effects (font (size 1.27 1.27)) hide)
    )
    (pin "1" (uuid 7558ba3c-2d6a-469c-b8c7-f61c1227e240))
    (pin "2" (uuid 867c749c-f3ff-4c03-a883-98b21e3d2e1c))
  )

  (symbol (lib_id "Device:R_Small") (at 201.93 43.18 270) (unit 1)
    (in_bom yes) (on_board yes)
    (uuid 00000000-0000-0000-0000-0000600f1e43)
    (property "Reference" "R2" (id 0) (at 201.93 38.2016 90))
    (property "Value" "2K" (id 1) (at 201.93 40.513 90))
    (property "Footprint" "Resistor_SMD:R_0603_1608Metric" (id 2) (at 201.93 43.18 0)
      (effects (font (size 1.27 1.27)) hide)
    )
    (property "Datasheet" "~" (id 3) (at 201.93 43.18 0)
      (effects (font (size 1.27 1.27)) hide)
    )
    (pin "1" (uuid 81962fe5-76a8-4f1a-8480-9df15794e5fb))
    (pin "2" (uuid 61d5bcde-e204-46e8-96c0-c7df2aa5eb99))
  )

  (symbol (lib_id "Jumper:SolderJumper_2_Open") (at 208.28 81.28 0) (unit 1)
    (in_bom yes) (on_board yes)
    (uuid 00000000-0000-0000-0000-0000600f8818)
    (property "Reference" "JP1" (id 0) (at 208.28 76.073 0))
    (property "Value" "DS" (id 1) (at 208.28 78.3844 0))
    (property "Footprint" "Jumper:SolderJumper-2_P1.3mm_Open_RoundedPad1.0x1.5mm" (id 2) (at 208.28 81.28 0)
      (effects (font (size 1.27 1.27)) hide)
    )
    (property "Datasheet" "~" (id 3) (at 208.28 81.28 0)
      (effects (font (size 1.27 1.27)) hide)
    )
    (pin "1" (uuid 746884bb-1032-4d37-a48d-ec224f8b4027))
    (pin "2" (uuid 7d8e2274-6daa-4128-aed2-85e1c3db32ce))
  )

  (symbol (lib_id "Connector:Conn_01x05_Female") (at 33.02 113.03 0) (unit 1)
    (in_bom yes) (on_board yes)
    (uuid 00000000-0000-0000-0000-0000600e53ca)
    (property "Reference" "J2" (id 0) (at 30.48 101.6 0)
      (effects (font (size 1.27 1.27)) (justify left))
    )
    (property "Value" "Conn_01x05_Female" (id 1) (at 22.86 104.14 0)
      (effects (font (size 1.27 1.27)) (justify left))
    )
    (property "Footprint" "Connector_PinSocket_2.54mm:PinSocket_1x05_P2.54mm_Vertical" (id 2) (at 33.02 113.03 0)
      (effects (font (size 1.27 1.27)) hide)
    )
    (property "Datasheet" "~" (id 3) (at 33.02 113.03 0)
      (effects (font (size 1.27 1.27)) hide)
    )
    (pin "1" (uuid a9562547-3512-4f8e-94da-eb2d3adb4cd2))
    (pin "2" (uuid fe8d0ae0-5ece-4dd7-895c-50c834297782))
    (pin "3" (uuid 7ed35408-3794-4dcd-b3d8-2d5042d03956))
    (pin "4" (uuid 8dd60b5d-3646-4c36-ad28-b5cb0cd6a81e))
    (pin "5" (uuid c2e659eb-f610-44b4-88fb-0fcc5fecdbf2))
  )

  (symbol (lib_id "Connector:Conn_01x05_Female") (at 58.42 111.76 180) (unit 1)
    (in_bom yes) (on_board yes)
    (uuid 00000000-0000-0000-0000-0000600e6716)
    (property "Reference" "J3" (id 0) (at 59.69 101.6 0)
      (effects (font (size 1.27 1.27)) (justify left))
    )
    (property "Value" "Conn_01x05_Female" (id 1) (at 68.58 104.14 0)
      (effects (font (size 1.27 1.27)) (justify left))
    )
    (property "Footprint" "Connector_PinSocket_2.54mm:PinSocket_1x05_P2.54mm_Vertical" (id 2) (at 58.42 111.76 0)
      (effects (font (size 1.27 1.27)) hide)
    )
    (property "Datasheet" "~" (id 3) (at 58.42 111.76 0)
      (effects (font (size 1.27 1.27)) hide)
    )
    (pin "1" (uuid f698bbcc-1d4b-4140-bfc2-f55311fad0fb))
    (pin "2" (uuid 3d74022b-fb7d-437b-af42-386c2d3b7658))
    (pin "3" (uuid 3fb06e93-2e7e-4d84-a3a9-c055f28ebfe0))
    (pin "4" (uuid bc38ebe9-1eec-4ac4-8fe6-ec22cbcaa08c))
    (pin "5" (uuid 071ef95a-04db-41eb-a3a9-77ea245bf455))
  )

  (symbol (lib_id "SparkFun-Connectors:QWIIC_CONNECTORJS-1MM") (at 101.6 49.53 0) (unit 1)
    (in_bom yes) (on_board yes)
    (uuid 00000000-0000-0000-0000-0000600d0b0a)
    (property "Reference" "QWIIC1" (id 0) (at 100.5332 34.036 0)
      (effects (font (size 1.143 1.143)))
    )
    (property "Value" "QWIIC_CONNECTORJS-1MM" (id 1) (at 100.5332 36.1696 0)
      (effects (font (size 1.143 1.143)))
    )
    (property "Footprint" "1X04_1MM_RA" (id 2) (at 101.6 36.83 0)
      (effects (font (size 0.508 0.508)) hide)
    )
    (property "Datasheet" "" (id 3) (at 101.6 49.53 0)
      (effects (font (size 1.27 1.27)) hide)
    )
    (property "Field4" "CONN-13694" (id 4) (at 100.5332 38.5826 0)
      (effects (font (size 1.524 1.524)))
    )
    (pin "1" (uuid 1ad74c55-479f-413f-8bc4-95e16e96b3b6))
    (pin "2" (uuid 1281c639-9b8f-486c-8611-fec258fdf7d6))
    (pin "3" (uuid f714d8c1-e30a-4e7d-89f2-29a39d74659c))
    (pin "4" (uuid dde8fbe5-8424-4693-a385-8419980047a8))
  )

  (symbol (lib_id "SparkFun-Connectors:QWIIC_CONNECTORJS-1MM") (at 138.43 41.91 180) (unit 1)
    (in_bom yes) (on_board yes)
    (uuid 00000000-0000-0000-0000-0000600d1623)
    (property "Reference" "QWIIC2" (id 0) (at 142.24 34.29 0)
      (effects (font (size 1.143 1.143)))
    )
    (property "Value" "QWIIC_CONNECTORJS-1MM" (id 1) (at 144.78 36.83 0)
      (effects (font (size 1.143 1.143)))
    )
    (property "Footprint" "1X04_1MM_RA" (id 2) (at 138.43 54.61 0)
      (effects (font (size 0.508 0.508)) hide)
    )
    (property "Datasheet" "" (id 3) (at 138.43 41.91 0)
      (effects (font (size 1.27 1.27)) hide)
    )
    (property "Field4" "CONN-13694" (id 4) (at 142.24 39.37 0)
      (effects (font (size 1.524 1.524)))
    )
    (pin "1" (uuid 70bee9b9-96f1-4e64-bfd7-d2e2652dff9c))
    (pin "2" (uuid ac22352d-8aee-41c5-8a7d-3f7724b7d39d))
    (pin "3" (uuid 80514c7b-0278-49c0-9e78-ab34689900d0))
    (pin "4" (uuid b5ee1b8b-cff8-441e-af62-561f808f5fce))
  )

  (symbol (lib_id "dk_Transistors-Bipolar-BJT-Single:BC847B_215") (at 119.38 96.52 180) (unit 1)
    (in_bom yes) (on_board yes)
    (uuid 00000000-0000-0000-0000-00006011317f)
    (property "Reference" "Q1" (id 0) (at 114.6302 95.1738 0)
      (effects (font (size 1.524 1.524)) (justify left))
    )
    (property "Value" "BC847B_215" (id 1) (at 114.6302 97.8662 0)
      (effects (font (size 1.524 1.524)) (justify left))
    )
    (property "Footprint" "digikey-footprints:SOT-23-3" (id 2) (at 114.3 101.6 0)
      (effects (font (size 1.524 1.524)) (justify left) hide)
    )
    (property "Datasheet" "https://assets.nexperia.com/documents/data-sheet/BC847_SER.pdf" (id 3) (at 114.3 104.14 0)
      (effects (font (size 1.524 1.524)) (justify left) hide)
    )
    (property "Digi-Key_PN" "1727-2921-1-ND" (id 4) (at 114.3 106.68 0)
      (effects (font (size 1.524 1.524)) (justify left) hide)
    )
    (property "MPN" "BC847B,215" (id 5) (at 114.3 109.22 0)
      (effects (font (size 1.524 1.524)) (justify left) hide)
    )
    (property "Category" "Discrete Semiconductor Products" (id 6) (at 114.3 111.76 0)
      (effects (font (size 1.524 1.524)) (justify left) hide)
    )
    (property "Family" "Transistors - Bipolar (BJT) - Single" (id 7) (at 114.3 114.3 0)
      (effects (font (size 1.524 1.524)) (justify left) hide)
    )
    (property "DK_Datasheet_Link" "https://assets.nexperia.com/documents/data-sheet/BC847_SER.pdf" (id 8) (at 114.3 116.84 0)
      (effects (font (size 1.524 1.524)) (justify left) hide)
    )
    (property "DK_Detail_Page" "/product-detail/en/nexperia-usa-inc/BC847B,215/1727-2921-1-ND/763460" (id 9) (at 114.3 119.38 0)
      (effects (font (size 1.524 1.524)) (justify left) hide)
    )
    (property "Description" "TRANS NPN 45V 0.1A SOT23" (id 10) (at 114.3 121.92 0)
      (effects (font (size 1.524 1.524)) (justify left) hide)
    )
    (property "Manufacturer" "Nexperia USA Inc." (id 11) (at 114.3 124.46 0)
      (effects (font (size 1.524 1.524)) (justify left) hide)
    )
    (property "Status" "Active" (id 12) (at 114.3 127 0)
      (effects (font (size 1.524 1.524)) (justify left) hide)
    )
    (pin "1" (uuid c8b5a89d-200f-4902-af37-8bf9190692bb))
    (pin "2" (uuid dcdfd48c-e584-4db1-9ec5-a07e6d144511))
    (pin "3" (uuid 5fc5f7b8-edb4-4066-8817-3ff77c3e8934))
  )

  (symbol (lib_id "dk_Transistors-Bipolar-BJT-Single:BC847B_215") (at 133.35 88.9 0) (unit 1)
    (in_bom yes) (on_board yes)
    (uuid 00000000-0000-0000-0000-000060115059)
    (property "Reference" "Q2" (id 0) (at 138.1252 87.5538 0)
      (effects (font (size 1.524 1.524)) (justify left))
    )
    (property "Value" "BC847B_215" (id 1) (at 138.1252 90.2462 0)
      (effects (font (size 1.524 1.524)) (justify left))
    )
    (property "Footprint" "digikey-footprints:SOT-23-3" (id 2) (at 138.43 83.82 0)
      (effects (font (size 1.524 1.524)) (justify left) hide)
    )
    (property "Datasheet" "https://assets.nexperia.com/documents/data-sheet/BC847_SER.pdf" (id 3) (at 138.43 81.28 0)
      (effects (font (size 1.524 1.524)) (justify left) hide)
    )
    (property "Digi-Key_PN" "1727-2921-1-ND" (id 4) (at 138.43 78.74 0)
      (effects (font (size 1.524 1.524)) (justify left) hide)
    )
    (property "MPN" "BC847B,215" (id 5) (at 138.43 76.2 0)
      (effects (font (size 1.524 1.524)) (justify left) hide)
    )
    (property "Category" "Discrete Semiconductor Products" (id 6) (at 138.43 73.66 0)
      (effects (font (size 1.524 1.524)) (justify left) hide)
    )
    (property "Family" "Transistors - Bipolar (BJT) - Single" (id 7) (at 138.43 71.12 0)
      (effects (font (size 1.524 1.524)) (justify left) hide)
    )
    (property "DK_Datasheet_Link" "https://assets.nexperia.com/documents/data-sheet/BC847_SER.pdf" (id 8) (at 138.43 68.58 0)
      (effects (font (size 1.524 1.524)) (justify left) hide)
    )
    (property "DK_Detail_Page" "/product-detail/en/nexperia-usa-inc/BC847B,215/1727-2921-1-ND/763460" (id 9) (at 138.43 66.04 0)
      (effects (font (size 1.524 1.524)) (justify left) hide)
    )
    (property "Description" "TRANS NPN 45V 0.1A SOT23" (id 10) (at 138.43 63.5 0)
      (effects (font (size 1.524 1.524)) (justify left) hide)
    )
    (property "Manufacturer" "Nexperia USA Inc." (id 11) (at 138.43 60.96 0)
      (effects (font (size 1.524 1.524)) (justify left) hide)
    )
    (property "Status" "Active" (id 12) (at 138.43 58.42 0)
      (effects (font (size 1.524 1.524)) (justify left) hide)
    )
    (pin "1" (uuid 76ed040a-d706-4ad8-bf6d-faa2c2f97b8b))
    (pin "2" (uuid 58424144-2dbc-4d39-8765-c5e9925173a9))
    (pin "3" (uuid f027fc3a-13cf-4648-9a2a-07e714bed6cb))
  )

  (symbol (lib_id "Connector_Generic:Conn_01x06") (at 53.34 154.94 90) (mirror x) (unit 1)
    (in_bom yes) (on_board yes)
    (uuid 00000000-0000-0000-0000-0000600d2e4d)
    (property "Reference" "J1" (id 0) (at 46.228 151.6888 90)
      (effects (font (size 1.27 1.27)) (justify left))
    )
    (property "Value" "Conn_01x06" (id 1) (at 46.228 154.0002 90)
      (effects (font (size 1.27 1.27)) (justify left))
    )
    (property "Footprint" "Connector_PinHeader_2.54mm:PinHeader_1x06_P2.54mm_Horizontal" (id 2) (at 53.34 154.94 0)
      (effects (font (size 1.27 1.27)) hide)
    )
    (property "Datasheet" "~" (id 3) (at 53.34 154.94 0)
      (effects (font (size 1.27 1.27)) hide)
    )
    (pin "1" (uuid 28225d44-6f11-43c8-9a74-f1d533529b0d))
    (pin "2" (uuid 84dffc90-b70f-404b-8262-d85d3e156b05))
    (pin "3" (uuid 9a3e8b5a-54b8-4f02-a94e-249ca53c3c04))
    (pin "4" (uuid d352d975-7092-46b7-b937-44fc930e19c2))
    (pin "5" (uuid 51922270-7344-4f13-b078-d77cf8658673))
    (pin "6" (uuid 92b57538-0965-48f2-825d-8d2c350d35b7))
  )

  (symbol (lib_id "RF_Module:ESP-WROOM-02") (at 49.53 50.8 0) (unit 1)
    (in_bom yes) (on_board yes)
    (uuid 00000000-0000-0000-0000-0000600be239)
    (property "Reference" "U1" (id 0) (at 58.42 36.83 0))
    (property "Value" "ESP-WROOM-02" (id 1) (at 39.37 35.56 0))
    (property "Footprint" "RF_Module:ESP-WROOM-02" (id 2) (at 64.77 64.77 0)
      (effects (font (size 1.27 1.27)) hide)
    )
    (property "Datasheet" "https://www.espressif.com/sites/default/files/documentation/0c-esp-wroom-02_datasheet_en.pdf" (id 3) (at 50.8 12.7 0)
      (effects (font (size 1.27 1.27)) hide)
    )
    (pin "1" (uuid 0a64797f-79ff-4fe7-a829-5e6d6a855b71))
    (pin "10" (uuid 61c45496-3563-4bef-9bf8-58079b93455e))
    (pin "11" (uuid 5c3507f3-51a4-4f1a-a09e-570fef6f2ca4))
    (pin "12" (uuid 89f1f491-f2ad-4ba9-aee7-55f6c0f6d338))
    (pin "13" (uuid 25857d23-f8b8-41bb-ad68-491f919fa8df))
    (pin "14" (uuid 300c4766-8f30-4e75-883a-d881cdc9526d))
    (pin "15" (uuid 2283ed4d-10ac-4022-8053-a69d77ad787f))
    (pin "16" (uuid 90803b85-3234-4951-9428-a45be741d3d4))
    (pin "17" (uuid 9df01612-3b52-4aa9-9d0e-373722eae995))
    (pin "18" (uuid 08fc3752-5cd0-45a2-b974-4cd46e96bc01))
    (pin "19" (uuid c0390d74-e54c-4349-9cf8-5beefa2ebf5f))
    (pin "2" (uuid e5fc834b-f65a-4dd3-833d-25b3495de6eb))
    (pin "3" (uuid ff8feb11-6b64-4f88-af7d-42b414c7cb73))
    (pin "4" (uuid 419679ec-ec97-4f68-9ab8-4ca52b4da946))
    (pin "5" (uuid 4fdf959f-f539-4c80-b21e-e4e11073b715))
    (pin "6" (uuid 121dcca2-992e-4b38-8a88-3c9282e1e0ba))
    (pin "7" (uuid 32ee9503-02c7-4648-8b54-86eb4202df7d))
    (pin "8" (uuid 717d9713-ec47-4438-b2b0-4e5db50dbe3a))
    (pin "9" (uuid c2557b7c-82f9-4988-9cee-7c02b7e72086))
  )

  (sheet_instances
    (path "/" (page "1"))
  )

  (symbol_instances
    (path "/00000000-0000-0000-0000-0000600bee57"
      (reference "#PWR0101") (unit 1) (value "+3.3V") (footprint "")
    )
    (path "/00000000-0000-0000-0000-0000600bf9ac"
      (reference "#PWR0102") (unit 1) (value "GND") (footprint "")
    )
    (path "/00000000-0000-0000-0000-0000600c3501"
      (reference "#PWR0103") (unit 1) (value "+3.3V") (footprint "")
    )
    (path "/00000000-0000-0000-0000-0000600c48b6"
      (reference "#PWR0104") (unit 1) (value "GND") (footprint "")
    )
    (path "/00000000-0000-0000-0000-0000600c828f"
      (reference "#PWR0105") (unit 1) (value "+3.3V") (footprint "")
    )
    (path "/00000000-0000-0000-0000-0000600c8852"
      (reference "#PWR0106") (unit 1) (value "GND") (footprint "")
    )
    (path "/00000000-0000-0000-0000-0000600cdbab"
      (reference "#PWR0107") (unit 1) (value "GND") (footprint "")
    )
    (path "/00000000-0000-0000-0000-0000600dfb39"
      (reference "#PWR0108") (unit 1) (value "+3.3V") (footprint "")
    )
    (path "/00000000-0000-0000-0000-0000600f3215"
      (reference "#PWR0109") (unit 1) (value "+3.3V") (footprint "")
    )
    (path "/00000000-0000-0000-0000-0000600d2e4d"
      (reference "J1") (unit 1) (value "Conn_01x06") (footprint "Connector_PinHeader_2.54mm:PinHeader_1x06_P2.54mm_Horizontal")
    )
    (path "/00000000-0000-0000-0000-0000600e53ca"
      (reference "J2") (unit 1) (value "Conn_01x05_Female") (footprint "Connector_PinSocket_2.54mm:PinSocket_1x05_P2.54mm_Vertical")
    )
    (path "/00000000-0000-0000-0000-0000600e6716"
      (reference "J3") (unit 1) (value "Conn_01x05_Female") (footprint "Connector_PinSocket_2.54mm:PinSocket_1x05_P2.54mm_Vertical")
    )
    (path "/00000000-0000-0000-0000-0000600f8818"
      (reference "JP1") (unit 1) (value "DS") (footprint "Jumper:SolderJumper-2_P1.3mm_Open_RoundedPad1.0x1.5mm")
    )
    (path "/00000000-0000-0000-0000-00006011317f"
      (reference "Q1") (unit 1) (value "BC847B_215") (footprint "digikey-footprints:SOT-23-3")
    )
    (path "/00000000-0000-0000-0000-000060115059"
      (reference "Q2") (unit 1) (value "BC847B_215") (footprint "digikey-footprints:SOT-23-3")
    )
    (path "/00000000-0000-0000-0000-0000600d0b0a"
      (reference "QWIIC1") (unit 1) (value "QWIIC_CONNECTORJS-1MM") (footprint "1X04_1MM_RA")
    )
    (path "/00000000-0000-0000-0000-0000600d1623"
      (reference "QWIIC2") (unit 1) (value "QWIIC_CONNECTORJS-1MM") (footprint "1X04_1MM_RA")
    )
    (path "/00000000-0000-0000-0000-0000600f13af"
      (reference "R1") (unit 1) (value "2K") (footprint "Resistor_SMD:R_0603_1608Metric")
    )
    (path "/00000000-0000-0000-0000-0000600f1e43"
      (reference "R2") (unit 1) (value "2K") (footprint "Resistor_SMD:R_0603_1608Metric")
    )
    (path "/00000000-0000-0000-0000-0000600fddbe"
      (reference "R3") (unit 1) (value "10K") (footprint "Resistor_SMD:R_0603_1608Metric")
    )
    (path "/00000000-0000-0000-0000-0000600fd925"
      (reference "R4") (unit 1) (value "10K") (footprint "Resistor_SMD:R_0603_1608Metric")
    )
    (path "/00000000-0000-0000-0000-0000600be239"
      (reference "U1") (unit 1) (value "ESP-WROOM-02") (footprint "RF_Module:ESP-WROOM-02")
    )
  )
)
