EESchema Schematic File Version 4
EELAYER 30 0
EELAYER END
$Descr A4 11693 8268
encoding utf-8
Sheet 1 1
Title ""
Date ""
Rev ""
Comp ""
Comment1 ""
Comment2 ""
Comment3 ""
Comment4 ""
$EndDescr
$Comp
L Connector_Generic:Conn_02x05_Odd_Even J1
U 1 1 6058C2AA
P 2800 2700
F 0 "J1" H 2850 3117 50  0000 C CNN
F 1 "Conn_02x05_Odd_Even" H 2850 3026 50  0000 C CNN
F 2 "Olimex:PinSocket_2x05_P2.54mm_Side" H 2800 2700 50  0001 C CNN
F 3 "~" H 2800 2700 50  0001 C CNN
	1    2800 2700
	1    0    0    -1  
$EndComp
$Comp
L power:+3V3 #PWR0101
U 1 1 6058CC9E
P 2250 2500
F 0 "#PWR0101" H 2250 2350 50  0001 C CNN
F 1 "+3V3" H 2265 2673 50  0000 C CNN
F 2 "" H 2250 2500 50  0001 C CNN
F 3 "" H 2250 2500 50  0001 C CNN
	1    2250 2500
	1    0    0    -1  
$EndComp
$Comp
L power:GND #PWR0102
U 1 1 6058D115
P 3600 2500
F 0 "#PWR0102" H 3600 2250 50  0001 C CNN
F 1 "GND" H 3605 2327 50  0000 C CNN
F 2 "" H 3600 2500 50  0001 C CNN
F 3 "" H 3600 2500 50  0001 C CNN
	1    3600 2500
	1    0    0    -1  
$EndComp
Text Label 2150 2600 0    50   ~ 0
TXD
Text Label 3500 2600 2    50   ~ 0
RXD
Text Label 2150 2700 0    50   ~ 0
I2C_SCL
Text Label 3500 2700 2    50   ~ 0
I2C_SDA
Wire Wire Line
	2250 2500 2600 2500
Wire Wire Line
	2150 2600 2600 2600
Wire Wire Line
	2150 2700 2600 2700
Wire Wire Line
	3100 2600 3500 2600
Wire Wire Line
	3100 2700 3500 2700
Wire Wire Line
	3100 2500 3600 2500
Text Label 2150 2800 0    50   ~ 0
SPI_MISO
Text Label 3500 2800 2    50   ~ 0
SPI_MOSI
Text Label 2150 2900 0    50   ~ 0
SPI_SCLK
Text Label 3500 2900 2    50   ~ 0
SPI_CS
Wire Wire Line
	3100 2800 3500 2800
Wire Wire Line
	3100 2900 3500 2900
Wire Wire Line
	2600 2900 2150 2900
Wire Wire Line
	2150 2800 2600 2800
$Comp
L SparkFun-Connectors:QWIIC_CONNECTORJS-1MM QWIIC1
U 1 1 605951C1
P 1950 4200
F 0 "QWIIC1" H 2000 3900 45  0000 R CNN
F 1 "QWIIC_CONNECTORJS-1MM" H 2400 4000 45  0000 R CNN
F 2 "1X04_1MM_RA" H 1950 4700 20  0001 C CNN
F 3 "" H 1950 4200 50  0001 C CNN
F 4 "CONN-13694" H 2250 4100 60  0000 R CNN "Field4"
	1    1950 4200
	-1   0    0    1   
$EndComp
$Comp
L SparkFun-Connectors:QWIIC_CONNECTORJS-1MM QWIIC2
U 1 1 605953D8
P 3950 4500
F 0 "QWIIC2" H 3908 5110 45  0000 C CNN
F 1 "QWIIC_CONNECTORJS-1MM" H 3908 5026 45  0000 C CNN
F 2 "1X04_1MM_RA" H 3950 5000 20  0001 C CNN
F 3 "" H 3950 4500 50  0001 C CNN
F 4 "CONN-13694" H 3908 4931 60  0000 C CNN "Field4"
	1    3950 4500
	1    0    0    -1  
$EndComp
$Comp
L power:GND #PWR0103
U 1 1 60596C5C
P 4150 4500
F 0 "#PWR0103" H 4150 4250 50  0001 C CNN
F 1 "GND" H 4155 4327 50  0000 C CNN
F 2 "" H 4150 4500 50  0001 C CNN
F 3 "" H 4150 4500 50  0001 C CNN
	1    4150 4500
	1    0    0    -1  
$EndComp
$Comp
L power:+3V3 #PWR0104
U 1 1 60597065
P 1150 4300
F 0 "#PWR0104" H 1150 4150 50  0001 C CNN
F 1 "+3V3" H 1165 4473 50  0000 C CNN
F 2 "" H 1150 4300 50  0001 C CNN
F 3 "" H 1150 4300 50  0001 C CNN
	1    1150 4300
	1    0    0    -1  
$EndComp
$Comp
L power:+3V3 #PWR0105
U 1 1 60597778
P 4650 4400
F 0 "#PWR0105" H 4650 4250 50  0001 C CNN
F 1 "+3V3" H 4665 4573 50  0000 C CNN
F 2 "" H 4650 4400 50  0001 C CNN
F 3 "" H 4650 4400 50  0001 C CNN
	1    4650 4400
	1    0    0    -1  
$EndComp
$Comp
L power:GND #PWR0106
U 1 1 60597CE8
P 1350 4000
F 0 "#PWR0106" H 1350 3750 50  0001 C CNN
F 1 "GND" H 1355 3827 50  0000 C CNN
F 2 "" H 1350 4000 50  0001 C CNN
F 3 "" H 1350 4000 50  0001 C CNN
	1    1350 4000
	1    0    0    -1  
$EndComp
Text Label 1450 4500 0    50   ~ 0
I2C_SCL
Text Label 1450 4400 0    50   ~ 0
I2C_SDA
Text Label 4450 4200 2    50   ~ 0
I2C_SCL
Text Label 4450 4300 2    50   ~ 0
I2C_SDA
Wire Wire Line
	4050 4200 4450 4200
Wire Wire Line
	4050 4300 4450 4300
Wire Wire Line
	4050 4400 4650 4400
Wire Wire Line
	4050 4500 4150 4500
Wire Wire Line
	1850 4500 1450 4500
Wire Wire Line
	1850 4400 1450 4400
Wire Wire Line
	1850 4300 1150 4300
Wire Wire Line
	1850 4200 1450 4200
Wire Wire Line
	1450 4200 1450 4000
Wire Wire Line
	1450 4000 1350 4000
$EndSCHEMATC
